{
  "development": {
    "username": "postgres",
    "password": "1111",
    "database": "test",
    "host": "127.0.0.1",
    "dialect": "postgres",
    "operatorsAliases": false
  },
  "test": {
    "username": "postgres",
    "password": "1111",
    "database": "test_test",
    "host": "127.0.0.1",
    "dialect": "postgres"
  },
  "production": {
    "username": "postgres",
    "password": "1111",
    "database": "test_production",
    "host": "127.0.0.1",
    "dialect": "postgres"
  }
}
